<svg width="9" height="10" viewBox="0 0 9 10" fill="none" xmlns="http://www.w3.org/2000/svg">
<g clip-path="url(#clip0_26_385)">
<path d="M4.5 8.57642C6.57107 8.57642 8.25 6.89748 8.25 4.82642C8.25 2.75535 6.57107 1.07642 4.5 1.07642C2.42893 1.07642 0.75 2.75535 0.75 4.82642C0.75 6.89748 2.42893 8.57642 4.5 8.57642Z" stroke="#F8752B" stroke-width="0.7" stroke-linecap="round" stroke-linejoin="round"/>
<path d="M6 4.82642L4.5 3.32642L3 4.82642" stroke="#F8752B" stroke-width="0.7" stroke-linecap="round" stroke-linejoin="round"/>
<path d="M4.5 6.32642V3.32642" stroke="#F8752B" stroke-width="0.7" stroke-linecap="round" stroke-linejoin="round"/>
</g>
<defs>
<clipPath id="clip0_26_385">
<rect width="9" height="9" fill="white" transform="translate(0 0.326416)"/>
</clipPath>
</defs>
</svg>
