<svg width="18" height="18" viewBox="0 0 18 18" fill="none" xmlns="http://www.w3.org/2000/svg">
<path fill-rule="evenodd" clip-rule="evenodd" d="M4.90109 9.85688C5.26184 10.2979 6.17984 11.9318 6.37484 12.75H11.6248C11.8198 11.9325 12.7367 10.2986 13.0975 9.858C13.7139 9.106 14.102 8.19309 14.2157 7.22738C14.3279 6.26352 14.1601 5.28775 13.7323 4.41675C13.3005 3.53928 12.6291 2.80198 11.7958 2.29013C10.9552 1.77307 9.98752 1.49954 9.00059 1.5C8.01171 1.5 7.04271 1.77375 6.20534 2.28938C5.37182 2.80104 4.70017 3.53821 4.26809 4.41563C3.8401 5.28629 3.6719 6.26178 3.78359 7.2255C3.89571 8.18813 4.28309 9.1005 4.90109 9.85688ZM9.37484 4.5L7.12484 7.875H8.62484V10.125L10.8748 6.75H9.37484V4.5Z" fill="#66BA00"/>
<path d="M6.375 13.875C6.375 13.7755 6.41451 13.6802 6.48483 13.6098C6.55516 13.5395 6.65054 13.5 6.75 13.5H11.25C11.3495 13.5 11.4448 13.5395 11.5152 13.6098C11.5855 13.6802 11.625 13.7755 11.625 13.875C11.625 13.9745 11.5855 14.0698 11.5152 14.1402C11.4448 14.2105 11.3495 14.25 11.25 14.25H6.75C6.65054 14.25 6.55516 14.2105 6.48483 14.1402C6.41451 14.0698 6.375 13.9745 6.375 13.875ZM11.625 15H6.375V15.75C6.375 15.9489 6.45402 16.1397 6.59467 16.2803C6.73532 16.421 6.92609 16.5 7.125 16.5H10.875C11.0739 16.5 11.2647 16.421 11.4053 16.2803C11.546 16.1397 11.625 15.9489 11.625 15.75V15Z" fill="#66BA00"/>
</svg>
