<svg width="28" height="27" viewBox="0 0 28 27" fill="none" xmlns="http://www.w3.org/2000/svg">
<path d="M27.7021 16.8869C27.1695 16.1042 26.0969 15.8971 25.3118 16.4247L21.7386 18.8161L21.7282 11.3725L22.9696 12.5355C23.2335 12.7827 23.5777 12.9188 23.9391 12.9188C23.9398 12.9188 23.9405 12.9188 23.9413 12.9188C24.3314 12.9182 24.7081 12.7547 24.9747 12.4701C25.2338 12.1935 25.3697 11.8327 25.3573 11.4539C25.345 11.0751 25.1858 10.7239 24.9093 10.4648L22.5558 8.26016C22.3947 8.10923 22.1418 8.11748 21.9909 8.27859C21.84 8.4397 21.8483 8.69258 22.0093 8.84352L24.3628 11.0482C24.4835 11.1613 24.553 11.3146 24.5584 11.4799C24.5638 11.6453 24.5045 11.8028 24.3913 11.9235C24.2732 12.0496 24.113 12.1192 23.9401 12.1194C23.9397 12.1194 23.9395 12.1194 23.9391 12.1194C23.7815 12.1194 23.6312 12.06 23.516 11.9521L23.516 11.952L14.1708 3.19769C14.0168 3.05348 13.7772 3.05369 13.6236 3.19845L4.30276 11.979C4.18239 12.0924 4.025 12.1518 3.85962 12.1472C3.69425 12.1423 3.54074 12.0732 3.42732 11.9527C3.3139 11.8324 3.25413 11.675 3.2591 11.5096C3.26402 11.3443 3.33309 11.1908 3.45346 11.0773L13.471 1.64057C13.7084 1.41684 14.0809 1.4163 14.319 1.63942L20.1797 7.12961C20.3407 7.28049 20.5937 7.27229 20.7446 7.11118C20.8955 6.95007 20.8872 6.69719 20.7262 6.54626L14.8655 1.05607C14.3201 0.54507 13.4669 0.546218 12.9229 1.05875L9.71605 4.07969L9.71518 3.54085C9.71496 3.37099 9.64857 3.21141 9.52831 3.09154C9.40827 2.97183 9.24891 2.90593 9.07938 2.90593C9.07905 2.90593 9.07878 2.90593 9.07845 2.90593L6.78448 2.90916C6.61462 2.90937 6.45509 2.97577 6.33516 3.09602C6.21529 3.21628 6.14934 3.37602 6.14961 3.54594L6.15595 7.43351L2.90538 10.4956C2.62954 10.7554 2.47144 11.1071 2.46012 11.4859C2.4488 11.8647 2.58568 12.2252 2.8455 12.5009C3.10527 12.7767 3.45696 12.9349 3.83578 12.9462C3.85027 12.9467 3.86477 12.9469 3.87926 12.9469C4.24211 12.9469 4.58571 12.8107 4.85089 12.5608L6.08951 11.394L6.09443 14.9099C5.69368 14.8515 5.28823 14.8209 4.88091 14.8209H4.19705V14.5813C4.19705 13.7768 3.54249 13.1222 2.73798 13.1222H1.45906C0.654555 13.1222 0 13.7767 0 14.5812V20.8439C0 21.0646 0.178938 21.2436 0.399656 21.2436C0.620375 21.2436 0.799313 21.0646 0.799313 20.8439V14.5812C0.799313 14.2174 1.09528 13.9215 1.45906 13.9215H2.73793C3.10171 13.9215 3.39768 14.2174 3.39768 14.5812V15.2205V23.4125V24.0455C3.39768 24.4093 3.10171 24.7052 2.73793 24.7052H1.45906C1.09528 24.7052 0.799313 24.4093 0.799313 24.0455V23.3461C0.799313 23.1254 0.620375 22.9465 0.399656 22.9465C0.178938 22.9465 0 23.1254 0 23.3461V24.0455C0 24.85 0.654555 25.5046 1.45906 25.5046H2.73793C3.54244 25.5046 4.19699 24.8501 4.19699 24.0455V23.9912L10.0499 26.2076C10.0607 26.2117 10.0717 26.2153 10.0828 26.2184C10.3373 26.2903 10.5917 26.3263 10.8428 26.3263C10.9786 26.3263 11.1135 26.3157 11.2471 26.2946L19.8484 25.0547C19.8504 25.0545 19.8524 25.0541 19.8544 25.0538C20.5857 24.9371 21.2756 24.6279 21.8494 24.1599C21.8544 24.1559 21.8593 24.1516 21.8641 24.1473L27.4209 19.1495C28.068 18.575 28.1888 17.6023 27.7021 16.8869ZM8.91609 3.70551L8.91794 4.83153L6.95401 6.68161L6.94914 3.70819L8.91609 3.70551ZM13.8983 4.03769L20.9278 10.6227L20.94 19.3505L19.8084 20.1078L18.6102 20.0406L18.5785 19.7223C18.467 18.6013 17.6395 17.6996 16.5452 17.4844L16.538 12.2921C16.5374 11.8936 16.213 11.5698 15.8146 11.5698C15.8143 11.5698 15.814 11.5698 15.8137 11.5698L12.0045 11.5752C11.8112 11.5754 11.6297 11.6509 11.4933 11.7877C11.3568 11.9245 11.2819 12.1063 11.2821 12.2994L11.2885 16.8265C10.534 16.654 9.81351 16.3692 9.13992 15.9751C9.05587 15.926 8.97099 15.8785 8.88541 15.8324C8.85205 15.8144 8.81814 15.7975 8.78451 15.7799C8.73244 15.7527 8.68049 15.7254 8.62788 15.6993C8.58599 15.6785 8.54361 15.6588 8.50139 15.6388C8.4566 15.6175 8.41187 15.596 8.36675 15.5755C8.32081 15.5547 8.27449 15.5348 8.22823 15.5148C8.18595 15.4965 8.14368 15.4781 8.10113 15.4606C8.05355 15.441 8.0057 15.4221 7.9578 15.4033C7.91531 15.3867 7.87276 15.3702 7.83005 15.3542C7.78263 15.3365 7.735 15.3194 7.68726 15.3026C7.64247 15.2868 7.59763 15.2714 7.55256 15.2563C7.50684 15.2411 7.46102 15.2261 7.41497 15.2117C7.36591 15.1962 7.31664 15.1814 7.26731 15.1668C7.22493 15.1543 7.1826 15.1419 7.14 15.1301C7.08438 15.1146 7.02849 15.1001 6.97255 15.0858C6.94635 15.079 6.92032 15.0714 6.89396 15.0649L6.88778 10.6419L13.8983 4.03769ZM15.7458 17.3843L12.403 16.9995L12.0881 16.9632L12.0816 12.3744L15.7388 12.3692L15.7458 17.3843ZM26.8884 18.5536L21.337 23.5465C20.8744 23.9216 20.3195 24.1697 19.7313 24.2641L11.1337 25.5034C11.1319 25.5037 11.1302 25.504 11.1284 25.5042L11.1224 25.5052C10.8619 25.5464 10.5907 25.529 10.3161 25.4536L4.19705 23.1364V15.6202H4.88091C5.46306 15.6202 6.04127 15.6874 6.60434 15.8179C6.62528 15.8228 6.64617 15.8278 6.66706 15.8328C6.73624 15.8495 6.80526 15.8666 6.87395 15.8852C6.87996 15.8869 6.88592 15.8886 6.89194 15.8903C6.96079 15.9091 7.02937 15.9289 7.09773 15.9497C7.10998 15.9534 7.12228 15.957 7.13448 15.9608C7.20721 15.9833 7.27962 16.0068 7.35164 16.0314C7.35908 16.0339 7.36646 16.0366 7.3739 16.0391C7.52391 16.0909 7.67244 16.1474 7.81911 16.2086C7.82709 16.2119 7.83508 16.2152 7.84306 16.2186C7.91618 16.2494 7.98886 16.2811 8.06105 16.3142C8.06296 16.315 8.06493 16.316 8.06684 16.3169C8.13662 16.3489 8.20591 16.3822 8.27477 16.4164C8.28286 16.4204 8.29101 16.4243 8.2991 16.4283C8.36637 16.462 8.43309 16.4968 8.49942 16.5325C8.51195 16.5392 8.52441 16.5461 8.53694 16.5529C8.60388 16.5893 8.67043 16.6265 8.73633 16.6651C9.6874 17.2214 10.7227 17.5818 11.8136 17.7361C11.8171 17.7366 11.8205 17.7371 11.8239 17.7375L16.3018 18.253C16.3266 18.2565 16.3512 18.2606 16.3756 18.2652C17.0348 18.3891 17.5551 18.8762 17.7292 19.5105C17.755 19.6044 17.7732 19.7017 17.7831 19.8014L17.8009 19.9802L9.40855 19.2449C9.18881 19.2257 8.99478 19.3883 8.97553 19.6081C8.95623 19.828 9.11892 20.0219 9.33877 20.0412L18.2114 20.8185C18.2135 20.8187 18.2156 20.8187 18.2177 20.8188C18.2197 20.819 18.2218 20.8193 18.2239 20.8195L19.8972 20.9134C19.9047 20.9138 19.9121 20.914 19.9195 20.914C19.9275 20.914 19.9353 20.9127 19.9432 20.9122C19.9521 20.9117 19.961 20.9114 19.9699 20.9103C19.9818 20.9087 19.9934 20.9062 20.0051 20.9036C20.0135 20.9017 20.0219 20.9004 20.0301 20.898C20.0429 20.8943 20.0552 20.8893 20.0676 20.8843C20.0743 20.8817 20.0812 20.8796 20.0878 20.8766C20.1064 20.8679 20.1246 20.858 20.1418 20.8464L21.5622 19.8959L21.5624 19.8957L25.757 17.0885C26.179 16.8048 26.7551 16.9161 27.0412 17.3365C27.3027 17.7208 27.2378 18.2433 26.8884 18.5536Z" fill="white"/>
</svg>
